<svg width="49" height="53" viewBox="0 0 49 53" fill="none" xmlns="http://www.w3.org/2000/svg">
<circle cx="25" cy="27" r="20" fill="#E1E1E3"/>
<path d="M31 14V19.2H28.4C27.503 19.2 27.1 20.253 27.1 21.15V24.4H31V29.6H27.1V40H21.9V29.6H18V24.4H21.9V19.2C21.9 17.8209 22.4479 16.4982 23.423 15.523C24.3982 14.5479 25.7209 14 27.1 14H31Z" fill="white"/>
</svg>
