<svg width="145" height="45" viewBox="0 0 145 45" fill="none" xmlns="http://www.w3.org/2000/svg">
<path d="M139.908 1H5.42572C2.98146 1 1 3.0265 1 5.52632V39.4737C1 41.9735 2.98146 44 5.42572 44H139.908C142.352 44 144.333 41.9735 144.333 39.4737V5.52632C144.333 3.0265 142.352 1 139.908 1Z" stroke="#4A4A4A"/>
<path   d="M8.61171 8.35544L8.52979 8.43763C8.55627 8.40854 8.58768 8.38642 8.61663 8.35986L8.61171 8.35544Z" fill="#B5B5B5"/>
<path   d="M8.61171 36.6895L8.61663 36.6851C8.58768 36.6585 8.55627 36.6364 8.52979 36.6073L8.61171 36.6895Z" fill="#B5B5B5"/>
<path   d="M8.52995 8.43579C8.21033 8.78357 8.02124 9.32344 8.02124 10.024V35.0183C8.02124 35.7183 8.21033 36.2581 8.52995 36.6066L22.2157 22.5209L8.52995 8.43579Z" fill="#5BC8F3"/>
<path   d="M26.7498 27.357L26.8545 27.2957L26.7498 27.357Z" fill="#B5B5B5"/>
<path   d="M32.2262 20.8904L26.853 17.7485L22.2155 22.522L26.853 27.2961L32.2262 24.1542C33.7615 23.2565 33.7615 21.7881 32.2262 20.8904Z" fill="#FFDF00"/>
<path   d="M22.2155 22.5221L8.52966 36.6078C8.55589 36.636 8.587 36.658 8.61567 36.6843C9.12743 37.1583 9.92038 37.1979 10.8122 36.6762L26.7499 27.3565L26.8536 27.2962L22.2155 22.5221Z" fill="#E9404A"/>
<path   d="M10.8119 8.36801C9.92014 7.84634 9.12719 7.88589 8.61542 8.35985C8.58737 8.38622 8.55626 8.40819 8.53003 8.43707L22.2152 22.5221L26.8534 17.7486L10.8119 8.36801Z" fill="#74C168"/>
<path   d="M114.588 33.8333H116.638V19.693H114.588V33.8333ZM133.059 24.7866L130.708 30.9173H130.637L128.198 24.7866H125.988L129.647 33.3549L127.561 38.1209H129.7L135.339 24.7866H133.059ZM121.428 32.2268C120.756 32.2268 119.819 31.8816 119.819 31.0266C119.819 29.9349 120.986 29.5168 121.993 29.5168C122.895 29.5168 123.319 29.717 123.867 29.9895C123.708 31.2996 122.613 32.2268 121.428 32.2268ZM121.676 24.4771C120.19 24.4771 118.653 25.1507 118.016 26.6423L119.837 27.4245C120.226 26.6423 120.951 26.3874 121.711 26.3874C122.772 26.3874 123.85 27.0422 123.867 28.2066V28.3523C123.496 28.1338 122.701 27.8068 121.729 27.8068C119.766 27.8068 117.769 28.916 117.769 30.9901C117.769 32.8822 119.377 34.1007 121.18 34.1007C122.559 34.1007 123.319 33.4641 123.797 32.7184H123.867V33.81H125.847V28.3887C125.847 25.8783 124.026 24.4771 121.676 24.4771ZM109.002 26.5079H106.085V21.661H109.002C110.535 21.661 111.406 22.968 111.406 24.0841C111.406 25.1808 110.535 26.5079 109.002 26.5079ZM108.949 19.693H104.035V33.8333H106.085V28.476H108.949C111.222 28.476 113.456 26.7823 113.456 24.0841C113.456 21.3867 111.222 19.693 108.949 19.693ZM82.1535 32.23C80.7372 32.23 79.5502 31.009 79.5502 29.3322C79.5502 27.6379 80.7372 26.3987 82.1535 26.3987C83.5522 26.3987 84.6501 27.6379 84.6501 29.3322C84.6501 31.009 83.5522 32.23 82.1535 32.23ZM84.508 25.5788H84.4372C83.9767 25.0139 83.0916 24.5035 81.9766 24.5035C79.6392 24.5035 77.4964 26.6172 77.4964 29.3322C77.4964 32.0291 79.6392 34.1252 81.9766 34.1252C83.0916 34.1252 83.9767 33.6148 84.4372 33.0316H84.508V33.724C84.508 35.5646 83.5522 36.5483 82.012 36.5483C80.7549 36.5483 79.9759 35.6192 79.6569 34.8352L77.8691 35.601C78.3821 36.8767 79.7454 38.4435 82.012 38.4435C84.4201 38.4435 86.4562 36.9859 86.4562 33.4328V24.7948H84.508V25.5788ZM87.8725 33.8333H89.9263V19.693H87.8725V33.8333ZM92.9542 29.1684C92.9011 27.3096 94.3528 26.3623 95.3977 26.3623C96.212 26.3623 96.9025 26.781 97.133 27.3824L92.9542 29.1684ZM99.3277 27.5644C98.9391 26.4897 97.7522 24.5035 95.3269 24.5035C92.9188 24.5035 90.9181 26.4533 90.9181 29.314C90.9181 32.0109 92.9011 34.1252 95.5569 34.1252C97.6991 34.1252 98.9391 32.7767 99.4515 31.9933L97.8583 30.8997C97.3276 31.7014 96.6018 32.23 95.5569 32.23C94.512 32.23 93.7685 31.7378 93.2903 30.7723L99.5406 28.1119L99.3277 27.5644ZM49.5332 25.98V28.0208H54.2787C54.1366 29.1684 53.7651 30.0064 53.1979 30.5896C52.508 31.3009 51.4277 32.0843 49.5332 32.0843C46.6121 32.0843 44.3271 29.6605 44.3271 26.6536C44.3271 23.6472 46.6121 21.2234 49.5332 21.2234C51.1093 21.2234 52.2597 21.8612 53.11 22.6811L54.5087 21.2416C53.3217 20.0753 51.7461 19.1826 49.5332 19.1826C45.5318 19.1826 42.1672 22.5355 42.1672 26.6536C42.1672 30.7723 45.5318 34.1252 49.5332 34.1252C51.6937 34.1252 53.3217 33.3957 54.5965 32.0291C55.9073 30.6807 56.3148 28.7861 56.3148 27.255C56.3148 26.781 56.2788 26.3441 56.208 25.98H49.5332ZM61.7087 32.23C60.2924 32.23 59.0706 31.0272 59.0706 29.314C59.0706 27.5833 60.2924 26.3987 61.7087 26.3987C63.1256 26.3987 64.3474 27.5833 64.3474 29.314C64.3474 31.0272 63.1256 32.23 61.7087 32.23ZM61.7087 24.5035C59.1237 24.5035 57.0168 26.5261 57.0168 29.314C57.0168 32.0843 59.1237 34.1252 61.7087 34.1252C64.2943 34.1252 66.4012 32.0843 66.4012 29.314C66.4012 26.5261 64.2943 24.5035 61.7087 24.5035ZM71.9451 32.23C70.5282 32.23 69.307 31.0272 69.307 29.314C69.307 27.5833 70.5282 26.3987 71.9451 26.3987C73.3609 26.3987 74.5826 27.5833 74.5826 29.314C74.5826 31.0272 73.3609 32.23 71.9451 32.23ZM71.9451 24.5035C69.3595 24.5035 67.2527 26.5261 67.2527 29.314C67.2527 32.0843 69.3595 34.1252 71.9451 34.1252C74.5296 34.1252 76.6364 32.0843 76.6364 29.314C76.6364 26.5261 74.5296 24.5035 71.9451 24.5035Z" fill="#4A4A4A"/>
<path   d="M44.8652 11.1736C44.878 12.247 44.6694 13.1127 44.24 13.7706H47.5729V8.65186H44.8652V11.1736ZM43.3458 16.0444H42.5358V13.7706H43.1799C43.7514 13.2646 44.0302 12.399 44.0186 11.1736V7.81757H48.4207V13.7706H49.1575V16.0444H48.3469V14.6043H43.3458V16.0444Z" fill="#4A4A4A"/>
<path   d="M51.5564 13.1593C52.0443 13.6684 52.6409 13.922 53.3478 13.922C54.0536 13.922 54.6513 13.6684 55.1387 13.1593C55.6273 12.6508 55.8713 12.0011 55.8713 11.2114C55.8713 10.4217 55.6273 9.77192 55.1387 9.26344C54.6513 8.75495 54.0536 8.50071 53.3478 8.50071C52.6409 8.50071 52.0443 8.75495 51.5564 9.26344C51.069 9.77192 50.8244 10.4217 50.8244 11.2114C50.8244 12.0011 51.069 12.6508 51.5564 13.1593ZM55.7651 13.7274C55.1173 14.4136 54.3116 14.7557 53.3478 14.7557C52.3835 14.7557 51.5777 14.4136 50.9305 13.7274C50.2821 13.0419 49.9589 12.2032 49.9589 11.2114C49.9589 10.2195 50.2821 9.3802 50.9305 8.69531C51.5777 8.00917 52.3835 7.66641 53.3478 7.66641C54.3061 7.66641 55.1094 8.01105 55.7615 8.69971C56.4117 9.38836 56.7368 10.2258 56.7368 11.2114C56.7368 12.2032 56.4129 13.0419 55.7651 13.7274Z" fill="#4A4A4A"/>
<path   d="M61.0019 14.756C60.0314 14.756 59.2183 14.4177 58.5614 13.7422C57.9032 13.0661 57.5763 12.2224 57.5763 11.2117C57.5763 10.201 57.9032 9.35667 58.5614 8.68057C59.2183 8.0051 60.0314 7.66611 61.0019 7.66611C61.9961 7.66611 62.8037 8.03586 63.4246 8.77536L62.8342 9.36357C62.3865 8.78792 61.7747 8.50103 61.0019 8.50103C60.2827 8.50103 59.6764 8.75025 59.1829 9.24995C58.6877 9.74902 58.4412 10.4025 58.4412 11.2117C58.4412 12.0203 58.6877 12.6744 59.1829 13.1735C59.6764 13.6725 60.2827 13.9217 61.0019 13.9217C61.7942 13.9217 62.4688 13.5941 63.0282 12.9368L63.6174 13.5432C63.3161 13.9161 62.9391 14.2111 62.4841 14.429C62.0303 14.6474 61.5356 14.756 61.0019 14.756Z" fill="#4A4A4A"/>
<path   d="M66.1966 8.65177H64.3551V7.81747H68.8865V8.65177H67.0444V14.6042H66.1966V8.65177Z" fill="#4A4A4A"/>
<path   d="M74.7042 7.81775L72.2082 13.5429C71.8642 14.3515 71.353 14.7558 70.6711 14.7558C70.4686 14.7558 70.2502 14.7055 70.016 14.6045L70.2374 13.7984C70.3789 13.8807 70.5259 13.9215 70.6796 13.9215C70.8767 13.9215 71.0285 13.8825 71.1359 13.8034C71.2433 13.7243 71.3427 13.5806 71.4354 13.3722L71.6745 12.831L69.4554 7.81775H70.4497L72.0795 11.7136H72.1167L73.7087 7.81775H74.7042Z" fill="#4A4A4A"/>
<path   d="M80.4336 7.81747V14.6042H79.5864V8.65177H76.5103V14.6042H75.6631V7.81747H80.4336Z" fill="#4A4A4A"/>
<path   d="M82.7911 7.81747V10.7271H86.088V7.81747H86.9364V14.6042H86.088V11.5426H82.7911V14.6042H81.9445V7.81747H82.7911Z" fill="#4A4A4A"/>
<path   d="M89.6298 13.1593C90.1184 13.6684 90.715 13.922 91.4213 13.922C92.1277 13.922 92.7248 13.6684 93.2122 13.1593C93.7008 12.6508 93.9454 12.0011 93.9454 11.2114C93.9454 10.4217 93.7008 9.77192 93.2122 9.26344C92.7248 8.75495 92.1277 8.50071 91.4213 8.50071C90.715 8.50071 90.1184 8.75495 89.6298 9.26344C89.1425 9.77192 88.8979 10.4217 88.8979 11.2114C88.8979 12.0011 89.1425 12.6508 89.6298 13.1593ZM93.8392 13.7274C93.1908 14.4136 92.3851 14.7557 91.4213 14.7557C90.457 14.7557 89.6512 14.4136 89.0046 13.7274C88.3556 13.0419 88.033 12.2032 88.033 11.2114C88.033 10.2195 88.3556 9.3802 89.0046 8.69531C89.6512 8.00917 90.457 7.66641 91.4213 7.66641C92.3796 7.66641 93.1835 8.01105 93.835 8.69971C94.4852 9.38836 94.8103 10.2258 94.8103 11.2114C94.8103 12.2032 94.4864 13.0419 93.8392 13.7274Z" fill="#4A4A4A"/>
<path   d="M99.1218 13.7705H100.826C101.151 13.7705 101.416 13.6531 101.618 13.419C101.821 13.1861 101.922 12.9299 101.922 12.6512C101.922 12.3737 101.818 12.1195 101.609 11.8885C101.4 11.6587 101.127 11.5426 100.788 11.5426H99.1218V13.7705ZM99.1218 10.7271H100.659C100.98 10.7271 101.237 10.6192 101.429 10.4001C101.623 10.1829 101.719 9.94431 101.719 9.68505C101.719 9.42641 101.626 9.18849 101.438 8.97442C101.251 8.75973 101.004 8.65175 100.697 8.65175H99.1218V10.7271ZM98.2751 14.6042V7.81808H100.659C101.176 7.81808 101.623 7.99323 102 8.34352C102.378 8.69507 102.567 9.13575 102.567 9.66558C102.567 9.98825 102.486 10.2726 102.322 10.5193C102.16 10.766 101.943 10.9519 101.673 11.0787V11.1157C101.998 11.23 102.265 11.4258 102.475 11.7039C102.683 11.982 102.788 12.3047 102.788 12.6707C102.788 13.2269 102.59 13.6883 102.194 14.0543C101.798 14.4209 101.329 14.6042 100.788 14.6042H98.2751Z" fill="#4A4A4A"/>
</svg>
