<svg width="50" height="53" viewBox="0 0 50 53" fill="none" xmlns="http://www.w3.org/2000/svg">
<circle cx="25" cy="27" r="20" fill="#E1E1E3"/>
<path d="M19.25 14H29.75C33.75 14 37 17.25 37 21.25V31.75C37 33.6728 36.2362 35.5169 34.8765 36.8765C33.5169 38.2362 31.6728 39 29.75 39H19.25C15.25 39 12 35.75 12 31.75V21.25C12 19.3272 12.7638 17.4831 14.1235 16.1235C15.4831 14.7638 17.3272 14 19.25 14ZM19 16.5C17.8065 16.5 16.6619 16.9741 15.818 17.818C14.9741 18.6619 14.5 19.8065 14.5 21V32C14.5 34.4875 16.5125 36.5 19 36.5H30C31.1935 36.5 32.3381 36.0259 33.182 35.182C34.0259 34.3381 34.5 33.1935 34.5 32V21C34.5 18.5125 32.4875 16.5 30 16.5H19ZM31.0625 18.375C31.4769 18.375 31.8743 18.5396 32.1674 18.8326C32.4604 19.1257 32.625 19.5231 32.625 19.9375C32.625 20.3519 32.4604 20.7493 32.1674 21.0424C31.8743 21.3354 31.4769 21.5 31.0625 21.5C30.6481 21.5 30.2507 21.3354 29.9576 21.0424C29.6646 20.7493 29.5 20.3519 29.5 19.9375C29.5 19.5231 29.6646 19.1257 29.9576 18.8326C30.2507 18.5396 30.6481 18.375 31.0625 18.375ZM24.5 20.25C26.1576 20.25 27.7473 20.9085 28.9194 22.0806C30.0915 23.2527 30.75 24.8424 30.75 26.5C30.75 28.1576 30.0915 29.7473 28.9194 30.9194C27.7473 32.0915 26.1576 32.75 24.5 32.75C22.8424 32.75 21.2527 32.0915 20.0806 30.9194C18.9085 29.7473 18.25 28.1576 18.25 26.5C18.25 24.8424 18.9085 23.2527 20.0806 22.0806C21.2527 20.9085 22.8424 20.25 24.5 20.25ZM24.5 22.75C23.5054 22.75 22.5516 23.1451 21.8483 23.8483C21.1451 24.5516 20.75 25.5054 20.75 26.5C20.75 27.4946 21.1451 28.4484 21.8483 29.1516C22.5516 29.8549 23.5054 30.25 24.5 30.25C25.4946 30.25 26.4484 29.8549 27.1516 29.1516C27.8549 28.4484 28.25 27.4946 28.25 26.5C28.25 25.5054 27.8549 24.5516 27.1516 23.8483C26.4484 23.1451 25.4946 22.75 24.5 22.75Z" fill="white"/>
</svg>
