<svg width="49" height="53" viewBox="0 0 49 53" fill="none" xmlns="http://www.w3.org/2000/svg">
<circle cx="25" cy="27" r="20" fill="#E1E1E3"/>
<path d="M35.1751 29.354C37.2635 31.3158 37.6946 32.2558 37.762 32.3784C38.6243 33.8225 36.8188 33.9315 36.8188 33.9315L33.3427 33.986C33.3427 33.986 32.5882 34.1359 31.6181 33.4547C30.3111 32.5555 29.0581 30.1986 28.1284 30.512C27.1718 30.8253 27.1988 32.937 27.1988 32.937C27.1988 32.937 27.1988 33.2367 26.9832 33.4683C26.7407 33.7272 26.2691 33.6318 26.2691 33.6318H24.7196C24.7196 33.6318 21.2839 33.986 18.2793 30.8117C14.9783 27.3513 12.068 20.5395 12.068 20.5395C12.068 20.5395 11.9063 20.1308 12.0815 19.8992C12.2836 19.6812 12.8495 19.6812 12.8495 19.6812H16.5682C16.5682 19.6812 16.932 19.6812 17.161 19.8992C17.3631 20.049 17.4844 20.3624 17.4844 20.3624C17.4844 20.3624 18.0772 21.8746 18.8856 23.2642C20.4351 25.9753 21.1492 26.5611 21.6477 26.275C22.4561 25.8527 22.227 22.4468 22.227 22.4468C22.227 22.4468 22.2405 21.207 21.8363 20.6621C21.5264 20.2398 20.9336 20.1035 20.6776 20.0763C20.462 20.049 20.8123 19.5586 21.257 19.327C21.9306 19 23.1028 19 24.5041 19C25.5954 19 25.9053 19.0817 26.323 19.1771C27.6164 19.4905 27.1718 20.703 27.1718 23.5912C27.1718 24.5312 27.0371 25.8118 27.6703 26.2614C27.9533 26.4521 28.6539 26.2886 30.4055 23.3051C31.2139 21.8882 31.8336 20.2125 31.8336 20.2125C31.8336 20.2125 31.9684 19.9264 32.1705 19.7902C32.3861 19.6812 32.6825 19.6812 32.6825 19.6812H36.5898C36.5898 19.6812 37.7755 19.5449 37.9641 20.0763C38.1662 20.6348 37.5195 21.9563 35.9161 24.0952C33.3023 27.6374 33.0058 27.3104 35.1751 29.354Z" fill="white"/>
</svg>
