<svg width="49" height="53" viewBox="0 0 49 53" fill="none" xmlns="http://www.w3.org/2000/svg">
<circle cx="25" cy="27" r="20" fill="#E1E1E3"/>
<path d="M22 32.625V21.375L29.5 27L22 32.625ZM34.5 17.5C33.75 17.25 29.125 17 24.5 17C19.875 17 15.25 17.2375 14.5 17.475C12.55 18.125 12 22.5 12 27C12 31.4875 12.55 35.875 14.5 36.5125C15.25 36.7625 19.875 37 24.5 37C29.125 37 33.75 36.7625 34.5 36.5125C36.45 35.875 37 31.4875 37 27C37 22.5 36.45 18.1375 34.5 17.5Z" fill="white"/>
</svg>
