<svg width="24" height="24" viewBox="0 0 24 24" fill="none" xmlns="http://www.w3.org/2000/svg">
<path d="M17.835 3.87L16.055 2.1L6.16504 12L16.065 21.9L17.835 20.13L9.70504 12L17.835 3.87Z" fill="#2979FF"/>
</svg>
