<svg width="34" height="30" viewBox="0 0 34 30" fill="none" xmlns="http://www.w3.org/2000/svg">
<path fill-rule="evenodd" clip-rule="evenodd" d="M0.333328 15.8333L17 0.833252L33.6667 15.8333H28.6667V29.1666H18.6667V19.1666H15.3333V29.1666H5.33333V15.8333H0.333328ZM25.3333 12.8166L17 5.31659L8.66666 12.8166V25.8333H12V15.8333H22V25.8333H25.3333V12.8166Z" fill="black" fill-opacity="0.54"/>
</svg>
