<svg width="316" height="49" viewBox="0 0 316 49" fill="none" xmlns="http://www.w3.org/2000/svg">
<path d="M9.69883 24.0708L24.2254 38.5103C29.8644 27.8688 36.6141 18.53 45.5717 10.6399C45.2957 9.94457 44.2968 8.38327 43.7881 8.00538C35.842 12.8782 28.6446 18.7173 22.3585 26.3407L13.8487 20.359L9.69883 24.0708ZM14.9351 0C18.8132 0 22.3452 1.47014 25 3.87921C27.6548 1.47014 31.186 0 35.064 0C43.3112 0 50 6.64795 50 14.8439C50 24.5059 41.5435 36.2513 25.0125 44.9975C25.0033 45.0008 24.995 45.0008 24.9867 44.9975C8.45479 36.2513 0 24.5059 0 14.8439C0 6.64795 6.68796 0 14.9351 0Z" fill="white"/>
<path d="M9.69883 24.0708L24.2254 38.5103C29.8644 27.8688 36.6141 18.53 45.5717 10.6399C45.2957 9.94457 44.2968 8.38327 43.7881 8.00538C35.842 12.8782 28.6446 18.7173 22.3585 26.3407L13.8487 20.359L9.69883 24.0708Z" fill="white"/>
<path d="M9.69883 24.0708L24.2254 38.5103C29.8644 27.8688 36.6141 18.53 45.5717 10.6399C45.2957 9.94457 44.2968 8.38327 43.7881 8.00538C35.842 12.8782 28.6446 18.7173 22.3585 26.3407L13.8487 20.359L9.69883 24.0708ZM14.9351 0C18.8132 0 22.3452 1.47014 25 3.87921C27.6548 1.47014 31.186 0 35.064 0C43.3112 0 50 6.64795 50 14.8439C50 24.5059 41.5435 36.2513 25.0125 44.9975C25.0033 45.0008 24.995 45.0008 24.9867 44.9975C8.45479 36.2513 0 24.5059 0 14.8439C0 6.64795 6.68796 0 14.9351 0Z" fill="#ED1C24"/>
<path d="M297.655 48.3311C298.489 48.3764 299.325 48.4697 300.161 48.4697C306.427 48.4697 308.468 46.2884 309.861 40.4404L315.756 15.8871H308.237L304.756 32.2244C304.06 32.2244 303.363 30.7871 303.084 29.6257L300.021 15.8871H292.316L296.911 32.2711C297.84 35.6151 300.207 38.4471 303.457 38.4471C302.621 41.0431 302.481 43.3204 299.417 43.3204C298.489 43.3204 298.025 43.2737 297.655 43.1351V48.3311ZM268.231 48.0977H275.609V22.3391H279.691C282.801 22.3391 283.357 22.4324 283.357 27.1657C283.357 30.9724 283.127 31.9951 279.691 31.9951H275.609L278.16 38.4471H282.197C288.417 38.4471 290.739 35.7057 290.739 28.8364V24.1937C290.739 18.2084 287.628 15.8871 282.197 15.8871H268.231V48.0977ZM229.38 31.3911V13.2884H236.621C239.035 13.2884 239.312 14.1244 239.312 16.0257C239.312 18.6257 238.571 19.1364 235.6 19.1364H229.38L230.865 25.0764H236.064C238.849 25.0764 239.824 25.4964 239.824 28.1391C239.824 30.7404 238.663 31.3911 235.879 31.3911H229.38ZM220.793 38.4471H237.92C244.743 38.4471 248.409 37.3764 248.409 29.4857C248.409 25.4484 247.621 22.5711 242.841 22.2471V21.9217C247.111 21.2244 247.9 18.5804 247.9 14.4951C247.9 7.44043 244.14 6.23376 237.735 6.23376H220.793V38.4471ZM194.94 18.7191C194.94 13.9377 196.517 13.4737 200.973 13.4737C205.476 13.4737 207.055 13.9377 207.055 18.7191V25.9604C207.055 30.7404 205.476 31.2524 200.973 31.2524C196.517 31.2524 194.94 30.7404 194.94 25.9604V18.7191ZM186.121 26.8884C186.121 36.8191 192.293 38.7257 200.973 38.7257C209.7 38.7257 215.873 36.8191 215.873 26.8884V17.7911C215.873 7.85776 209.7 6.00043 200.973 6.00043C192.293 6.00043 186.121 7.85776 186.121 17.7911V26.8884ZM155.719 38.4471H164.305V13.7057H170.153C173.543 13.7057 174.053 14.7271 174.053 18.0697C174.053 22.2004 173.543 22.7111 170.153 22.7111H164.305L166.208 30.1844H171.871C180.876 30.1844 182.872 27.1204 182.872 18.0697C182.872 9.62176 179.855 6.23376 171.871 6.23376H155.719V38.4471ZM129.912 18.7191C129.912 13.9377 131.489 13.4737 135.945 13.4737C140.448 13.4737 142.025 13.9377 142.025 18.7191V25.9604C142.025 30.7404 140.448 31.2524 135.945 31.2524C131.489 31.2524 129.912 30.7404 129.912 25.9604V18.7191ZM121.093 26.8884C121.093 36.8191 127.265 38.7257 135.945 38.7257C144.672 38.7257 150.845 36.8191 150.845 26.8884V17.7911C150.845 7.85776 144.672 6.00043 135.945 6.00043C127.265 6.00043 121.093 7.85776 121.093 17.7911V26.8884ZM95.796 30.9724C97.3773 29.3937 99.3707 26.6564 99.3707 17.1871V13.7057H107.447V30.9724H95.796ZM84.5667 45.0804H92.6893V38.4471H110.975V45.0804H119.097V30.9724H116.033V6.23376H91.248V17.1871C91.248 26.9804 88.9293 28.8831 86.6987 30.9724H84.5667V45.0804ZM55 31.5284C56.2533 37.7484 62.0987 38.7257 68.6 38.7257C75.8867 38.7257 81.7333 37.5164 81.7333 29.1617C81.7333 25.4484 80.528 22.4324 76.444 22.2471V21.9217C80.3893 21.4111 81.3613 18.2551 81.3613 14.6804C81.3613 6.41909 73.7973 6.00043 68.6 6.00043C61.4987 6.00043 56.392 7.02309 55.324 13.1484H67.764C72.1267 13.1484 72.7307 13.7524 72.7307 16.2591C72.7307 18.4404 71.9413 19.1364 67.764 19.1364H64.7933V25.0764H67.764C72.2667 25.0764 73.148 25.9137 73.148 28.0937C73.148 31.4817 71.292 31.5284 67.764 31.5284H55Z" fill="white"/>
<path d="M254.258 38.4482H261.218V30.9749H254.258V38.4482Z" fill="#ED1C24"/>
</svg>
