<svg width="40" height="40" viewBox="0 0 40 40" fill="none" xmlns="http://www.w3.org/2000/svg">
<path fill-rule="evenodd" clip-rule="evenodd" d="M27.577 21.6666C28.827 21.6666 29.927 20.9833 30.4937 19.9499L36.4604 9.13325C37.077 8.03325 36.277 6.66658 35.0104 6.66658H10.3437L8.77702 3.33325H3.32702V6.66658H6.66035L12.6604 19.3166L10.4104 23.3832C9.19369 25.6166 10.7937 28.3333 13.327 28.3333H33.327V24.9999H13.327L15.1604 21.6666H27.577ZM13.3269 29.9999C11.4935 29.9999 10.0102 31.4999 10.0102 33.3333C10.0102 35.1666 11.4935 36.6666 13.3269 36.6666C15.1602 36.6666 16.6602 35.1666 16.6602 33.3333C16.6602 31.4999 15.1602 29.9999 13.3269 29.9999ZM26.6769 33.3333C26.6769 31.4999 28.1602 29.9999 29.9935 29.9999C31.8269 29.9999 33.3269 31.4999 33.3269 33.3333C33.3269 35.1666 31.8269 36.6666 29.9935 36.6666C28.1602 36.6666 26.6769 35.1666 26.6769 33.3333Z" fill="#3DB42E"/>
</svg>
