<svg width="40" height="40" viewBox="0 0 40 40" fill="none" xmlns="http://www.w3.org/2000/svg">
<path d="M27.5 4.70825C24.6 4.70825 21.8167 6.05825 20 8.19159C18.1833 6.05825 15.4 4.70825 12.5 4.70825C7.36667 4.70825 3.33333 8.74159 3.33333 13.8749C3.33333 20.1749 9 25.3083 17.5833 33.1083L20 35.2916L22.4167 33.0916C31 25.3083 36.6667 20.1749 36.6667 13.8749C36.6667 8.74159 32.6333 4.70825 27.5 4.70825Z" fill="#3DB42E"/>
</svg>
