<svg width="24" height="24" viewBox="0 0 24 24" fill="none" xmlns="http://www.w3.org/2000/svg">
<path d="M18.8571 19.7144V18.0001C18.8571 17.0908 18.4959 16.2187 17.8529 15.5757C17.2099 14.9328 16.3379 14.5715 15.4285 14.5715H8.57139C7.66208 14.5715 6.79001 14.9328 6.14703 15.5757C5.50405 16.2187 5.14282 17.0908 5.14282 18.0001V19.7144" stroke="#787885" stroke-width="2" stroke-linecap="round" stroke-linejoin="round"/>
<path d="M12 11.1428C13.8935 11.1428 15.4286 9.60776 15.4286 7.71422C15.4286 5.82067 13.8935 4.28564 12 4.28564C10.1064 4.28564 8.57141 5.82067 8.57141 7.71422C8.57141 9.60776 10.1064 11.1428 12 11.1428Z" stroke="#787885" stroke-width="2" stroke-linecap="round" stroke-linejoin="round"/>
</svg>
